<?xml version="1.0" encoding="UTF-8" standalone="no"?>
<!-- Created with Inkscape (http://www.inkscape.org/) -->

<svg
   xmlns:dc="http://purl.org/dc/elements/1.1/"
   xmlns:cc="http://creativecommons.org/ns#"
   xmlns:rdf="http://www.w3.org/1999/02/22-rdf-syntax-ns#"
   xmlns:svg="http://www.w3.org/2000/svg"
   xmlns="http://www.w3.org/2000/svg"
   xmlns:sodipodi="http://sodipodi.sourceforge.net/DTD/sodipodi-0.dtd"
   xmlns:inkscape="http://www.inkscape.org/namespaces/inkscape"
   width="28mm"
   height="27.999861mm"
   viewBox="0 0 28 27.999861"
   version="1.1"
   id="svg8497"
   inkscape:version="0.92.2 (5c3e80d, 2017-08-06)"
   sodipodi:docname="settings.svg">
  <defs
     id="defs8491" />
  <sodipodi:namedview
     id="base"
     pagecolor="#ffffff"
     bordercolor="#666666"
     borderopacity="1.0"
     inkscape:pageopacity="0.0"
     inkscape:pageshadow="2"
     inkscape:zoom="0.35"
     inkscape:cx="385.77054"
     inkscape:cy="-1101.3726"
     inkscape:document-units="mm"
     inkscape:current-layer="layer1"
     showgrid="false"
     fit-margin-top="0"
     fit-margin-left="0"
     fit-margin-right="0"
     fit-margin-bottom="0"
     inkscape:window-width="2560"
     inkscape:window-height="1376"
     inkscape:window-x="1200"
     inkscape:window-y="300"
     inkscape:window-maximized="1" />
  <metadata
     id="metadata8494">
    <rdf:RDF>
      <cc:Work
         rdf:about="">
        <dc:format>image/svg+xml</dc:format>
        <dc:type
           rdf:resource="http://purl.org/dc/dcmitype/StillImage" />
        <dc:title></dc:title>
      </cc:Work>
    </rdf:RDF>
  </metadata>
  <g
     inkscape:label="Layer 1"
     inkscape:groupmode="layer"
     id="layer1"
     transform="translate(159.14286,170.57136)">
    <path
       id="path5147-7"
       d="m -131.14286,-154.84857 v -3.49998 l -4.18346,-1.74299 c -0.11574,-0.32806 -0.23811,-0.64573 -0.38923,-0.95722 l 1.68858,-4.20439 -2.47533,-2.47449 -4.16659,1.71588 c -0.31748,-0.15412 -0.64223,-0.28342 -0.97724,-0.40337 l -1.77392,-4.15623 h -3.49987 l -1.72993,4.14221 c -0.34823,0.12336 -0.68324,0.253 -1.01494,0.41038 l -4.15963,-1.67123 -2.47468,2.47448 1.69586,4.12211 c -0.16536,0.33865 -0.29763,0.68337 -0.4243,1.0395 l -4.11532,1.7596 v 3.5 l 4.11863,1.71588 c 0.12567,0.35524 0.26457,0.70086 0.42728,1.03948 l -1.66445,4.14921 2.47468,2.47452 4.13252,-1.70188 c 0.33169,0.15741 0.67034,0.28341 1.01857,0.40336 l 1.76995,4.14224 h 3.49987 l 1.73257,-4.16324 c 0.33171,-0.12336 0.65977,-0.25299 0.97395,-0.40336 l 4.19732,1.68174 2.47468,-2.47448 -1.72297,-4.17637 c 0.1455,-0.31417 0.26787,-0.63261 0.38329,-0.95723 z m -14.02695,3.52712 c -2.898,0 -5.24998,-2.35199 -5.24998,-5.24998 0,-2.89799 2.35198,-5.24997 5.24998,-5.24997 2.89798,0 5.24997,2.35198 5.24997,5.24997 0,2.89799 -2.35199,5.24998 -5.24997,5.24998 z"
       inkscape:connector-curvature="0"
       style="display:inline;fill:#60704c;fill-opacity:1;stroke-width:0.87499613" />
  </g>
</svg>
